dump.vcd
$date
	Wed Jan 31 15:33:43 2018
$end
$version
	Icarus Verilog
$end
$timescale
	1s
$end
$scope module tb_SimpleAdd $end
$var wire 32 ! im_dout [31:0] $end
$var wire 32 " im_addr [31:0] $end
$var wire 1 # dm_rw $end
$var wire 32 $ dm_dout [31:0] $end
$var wire 32 % dm_din [31:0] $end
$var wire 32 & dm_addr [31:0] $end
$var reg 1 ' clk $end
$var reg 2 ( dm_access_sz [1:0] $end
$var reg 2 ) im_access_sz [1:0] $end
$var reg 1 * im_rw $end
$var reg 1 + reset $end
$scope module dmem $end
$var wire 2 , access_size [1:0] $end
$var wire 1 ' clk $end
$var wire 1 - enable $end
$var wire 1 # rd_wr $end
$var wire 30 . data_index [29:0] $end
$var wire 32 / data_in [31:0] $end
$var wire 1 0 busy $end
$var wire 32 1 addr [31:0] $end
$var reg 30 2 burst_addr [29:0] $end
$var reg 4 3 burst_count [3:0] $end
$var reg 1 4 burst_rd_wr $end
$var reg 32 5 data_out [31:0] $end
$upscope $end
$scope module imem $end
$var wire 2 6 access_size [1:0] $end
$var wire 1 ' clk $end
$var wire 32 7 data_in [31:0] $end
$var wire 1 8 enable $end
$var wire 1 * rd_wr $end
$var wire 30 9 data_index [29:0] $end
$var wire 1 : busy $end
$var wire 32 ; addr [31:0] $end
$var reg 30 < burst_addr [29:0] $end
$var reg 4 = burst_count [3:0] $end
$var reg 1 > burst_rd_wr $end
$var reg 32 ? data_out [31:0] $end
$upscope $end
$scope module proc $end
$var wire 1 ' clk $end
$var wire 32 @ data_in [31:0] $end
$var wire 32 A data_out [31:0] $end
$var wire 1 # data_rd_wr $end
$var wire 32 B instr_in [31:0] $end
$var wire 1 + reset $end
$var wire 32 C reg_wr_data [31:0] $end
$var wire 5 D reg_rd_num1 [4:0] $end
$var wire 5 E reg_rd_num0 [4:0] $end
$var wire 32 F reg_rd_data1 [31:0] $end
$var wire 32 G reg_rd_data0 [31:0] $end
$var wire 32 H instr_addr [31:0] $end
$var reg 32 I a [31:0] $end
$var reg 32 J alu_out [31:0] $end
$var reg 32 K b [31:0] $end
$var reg 32 L data_addr [31:0] $end
$var reg 32 M ir [31:0] $end
$var reg 32 N pc [31:0] $end
$var reg 1 O reg_wr_en $end
$var reg 5 P reg_wr_num [4:0] $end
$var reg 32 Q sign_ext_imm [31:0] $end
$var reg 1 R st_en $end
$var integer 32 S lw [31:0] $end
$var integer 32 T state [31:0] $end
$scope module regs $end
$var wire 1 ' clk $end
$var wire 5 U rd0_num [4:0] $end
$var wire 5 V rd1_num [4:0] $end
$var wire 1 + reset $end
$var wire 32 W wr_data [31:0] $end
$var wire 1 O wr_en $end
$var wire 5 X wr_num [4:0] $end
$var wire 32 Y rd1_data [31:0] $end
$var wire 32 Z rd0_data [31:0] $end
$upscope $end
$upscope $end
$scope begin $ivl_for_loop0 $end
$var integer 32 [ i [31:0] $end
$upscope $end
$upscope $end
$enddefinitions $end
#0
$dumpvars
b0 [
bx Z
bx Y
bx X
bx W
bx V
bx U
b0 T
b1 S
xR
bx Q
bx P
0O
b10000000000000100000000000000000 N
bx M
bx L
bx K
bx J
bx I
b10000000000000100000000000000000 H
bx G
bx F
bx E
bx D
bx C
bz B
bx A
bz @
bz ?
x>
b0 =
bx <
b10000000000000100000000000000000 ;
0:
b0 9
08
bz 7
b1 6
bz 5
x4
b0 3
bx 2
bx 1
00
bx /
bx .
0-
b1 ,
1+
1*
b1 )
b1 (
1'
bx &
bx %
bz $
x#
b10000000000000100000000000000000 "
bz !
$end
#5
0'
#10
1-
18
0+
1'
#15
0'
#20
1>
b1 <
b100111101111011111111111101000 !
b100111101111011111111111101000 ?
b100111101111011111111111101000 B
b1 T
1'
#25
0'
#30
b1 9
b10000000000100100000000000000000 G
b10000000000100100000000000000000 Z
b10000000000100100000000000000000 F
b10000000000100100000000000000000 Y
b11101 E
b11101 U
b11101 D
b11101 V
b10 T
b10000000000000100000000000000100 "
b10000000000000100000000000000100 ;
b10000000000000100000000000000100 H
b10000000000000100000000000000100 N
b100111101111011111111111101000 M
1'
#35
0'
#40
b10 <
b10101111101111100000000000010100 !
b10101111101111100000000000010100 ?
b10101111101111100000000000010100 B
b11 T
b11111111111111111111111111101000 Q
b10000000000100100000000000000000 %
b10000000000100100000000000000000 /
b10000000000100100000000000000000 A
b10000000000100100000000000000000 K
b10000000000100100000000000000000 I
1'
#45
0'
#50
1#
b10000000000100011111111111101000 C
b10000000000100011111111111101000 W
b100 T
0R
b10000000000100011111111111101000 J
1'
#55
0'
#60
14
bx $
bx 5
bx @
b101 T
b11101 P
b11101 X
1O
1'
#61
b1 [
#65
0'
#70
b10000000000100011111111111101000 G
b10000000000100011111111111101000 Z
b10000000000100011111111111101000 F
b10000000000100011111111111101000 Y
b1 T
0O
1'
#75
0'
#80
b10 9
bx F
bx Y
b11110 D
b11110 V
b10 T
b10000000000000100000000000001000 "
b10000000000000100000000000001000 ;
b10000000000000100000000000001000 H
b10000000000000100000000000001000 N
b10101111101111100000000000010100 M
1'
#85
0'
#90
b11 <
b11101000001111000000100001 !
b11101000001111000000100001 ?
b11101000001111000000100001 B
b11 T
b10100 Q
bx %
bx /
bx A
bx K
b10000000000100011111111111101000 I
1'
#95
0'
#100
b111111111111111111 .
0#
b100 T
b10000000000100011111111111111100 &
b10000000000100011111111111111100 1
b10000000000100011111111111111100 L
1R
1'
#105
0'
#110
1#
04
b1000000000000000000 2
b101 T
0R
b0 P
b0 X
1'
#111
b10 [
#115
0'
#120
14
b1 T
1'
#125
0'
#130
b11 9
b0 F
b0 Y
b0 D
b0 V
b10 T
b10000000000000100000000000001100 "
b10000000000000100000000000001100 ;
b10000000000000100000000000001100 H
b10000000000000100000000000001100 N
b11101000001111000000100001 M
1'
#135
0'
#140
b100 <
b100100000000100000000000000011 !
b100100000000100000000000000011 ?
b100100000000100000000000000011 B
b11 T
b11111111111111111111000000100001 Q
b0 %
b0 /
b0 A
b0 K
1'
#145
0'
#150
b100 T
1'
#155
0'
#160
b101 T
b11110 P
b11110 X
1O
1'
#161
b11 [
#165
0'
#170
b1 T
0O
1'
#175
0'
#180
b100 9
b0 G
b0 Z
bx F
bx Y
b0 E
b0 U
b10 D
b10 V
b10 T
b10000000000000100000000000010000 "
b10000000000000100000000000010000 ;
b10000000000000100000000000010000 H
b10000000000000100000000000010000 N
b100100000000100000000000000011 M
1'
#185
0'
#190
b101 <
b10101111110000100000000000000000 !
b10101111110000100000000000000000 ?
b10101111110000100000000000000000 B
b11 T
b11 Q
bx %
bx /
bx A
bx K
b0 I
1'
#195
0'
#200
b11 C
b11 W
b100 T
b11 J
1'
#205
0'
#210
b101 T
b10 P
b10 X
1O
1'
#211
b100 [
#215
0'
#220
b11 F
b11 Y
b1 T
0O
1'
#225
0'
#230
b101 9
b10000000000100011111111111101000 G
b10000000000100011111111111101000 Z
b11110 E
b11110 U
b10 T
b10000000000000100000000000010100 "
b10000000000000100000000000010100 ;
b10000000000000100000000000010100 H
b10000000000000100000000000010100 N
b10101111110000100000000000000000 M
1'
#235
0'
#240
b110 <
b100100000000100000000000000010 !
b100100000000100000000000000010 ?
b100100000000100000000000000010 B
b11 T
b0 Q
b11 %
b11 /
b11 A
b11 K
b10000000000100011111111111101000 I
1'
#245
0'
#250
b111111111111111010 .
0#
b100 T
b10000000000100011111111111101000 &
b10000000000100011111111111101000 1
b10000000000100011111111111101000 L
1R
1'
#255
0'
#260
1#
04
b111111111111111011 2
b101 T
0R
b0 P
b0 X
1'
#261
b101 [
#265
0'
#270
14
b11 $
b11 5
b11 @
b1 T
1'
#275
0'
#280
b110 9
b0 G
b0 Z
b0 E
b0 U
b10 T
b10000000000000100000000000011000 "
b10000000000000100000000000011000 ;
b10000000000000100000000000011000 H
b10000000000000100000000000011000 N
b100100000000100000000000000010 M
1'
#285
0'
#290
b111 <
b10101111110000100000000000000100 !
b10101111110000100000000000000100 ?
b10101111110000100000000000000100 B
b11 T
b10 Q
b0 I
1'
#295
0'
#300
b10 C
b10 W
b100 T
b10 J
1'
#305
0'
#310
b101 T
b10 P
b10 X
1O
1'
#311
b110 [
#315
0'
#320
b10 F
b10 Y
b1 T
0O
1'
#325
0'
#330
b111 9
b10000000000100011111111111101000 G
b10000000000100011111111111101000 Z
b11110 E
b11110 U
b10 T
b10000000000000100000000000011100 "
b10000000000000100000000000011100 ;
b10000000000000100000000000011100 H
b10000000000000100000000000011100 N
b10101111110000100000000000000100 M
1'
#335
0'
#340
b1000 <
b10101111110000000000000000001000 !
b10101111110000000000000000001000 ?
b10101111110000000000000000001000 B
b11 T
b100 Q
b10 %
b10 /
b10 A
b10 K
b10000000000100011111111111101000 I
1'
#345
0'
#350
b111111111111111011 .
0#
b100 T
b10000000000100011111111111101100 &
b10000000000100011111111111101100 1
b10000000000100011111111111101100 L
1R
1'
#355
0'
#360
1#
04
b111111111111111100 2
b101 T
0R
b0 P
b0 X
1'
#361
b111 [
#365
0'
#370
14
b10 $
b10 5
b10 @
b1 T
1'
#375
0'
#380
b1000 9
b0 F
b0 Y
b0 D
b0 V
b10 T
b10000000000000100000000000100000 "
b10000000000000100000000000100000 ;
b10000000000000100000000000100000 H
b10000000000000100000000000100000 N
b10101111110000000000000000001000 M
1'
#385
0'
#390
b1001 <
b10001111110000110000000000000000 !
b10001111110000110000000000000000 ?
b10001111110000110000000000000000 B
b11 T
b1000 Q
b0 %
b0 /
b0 A
b0 K
1'
#395
0'
#400
b111111111111111100 .
0#
b100 T
b10000000000100011111111111110000 &
b10000000000100011111111111110000 1
b10000000000100011111111111110000 L
1R
1'
#405
0'
#410
1#
04
b111111111111111101 2
b101 T
0R
1'
#411
b1000 [
#415
0'
#420
14
b0 $
b0 5
b0 @
b1 T
1'
#425
0'
#430
b1001 9
bx F
bx Y
b11 D
b11 V
b10 T
b10000000000000100000000000100100 "
b10000000000000100000000000100100 ;
b10000000000000100000000000100100 H
b10000000000000100000000000100100 N
b10001111110000110000000000000000 M
1'
#435
0'
#440
b1010 <
b10001111110000100000000000000100 !
b10001111110000100000000000000100 ?
b10001111110000100000000000000100 B
b11 T
b0 Q
bx %
bx /
bx A
bx K
1'
#445
0'
#450
b111111111111111010 .
b100 T
b10000000000100011111111111101000 &
b10000000000100011111111111101000 1
b10000000000100011111111111101000 L
1'
#455
0'
#460
b11 C
b11 W
b111111111111111011 2
b11 $
b11 5
b11 @
b101 T
b0 S
b11 P
b11 X
1O
1'
#461
b1001 [
#465
0'
#470
b11 F
b11 Y
b10 C
b10 W
b1 T
0O
b1 S
1'
#475
0'
#480
b1010 9
b10 F
b10 Y
b10 D
b10 V
b10 T
b10000000000000100000000000101000 "
b10000000000000100000000000101000 ;
b10000000000000100000000000101000 H
b10000000000000100000000000101000 N
b10001111110000100000000000000100 M
1'
#485
0'
#490
b1011 <
b11000100001000000100001 !
b11000100001000000100001 ?
b11000100001000000100001 B
b11 T
b100 Q
b10 %
b10 /
b10 A
b10 K
1'
#495
0'
#500
b111111111111111011 .
b100 T
b10000000000100011111111111101100 &
b10000000000100011111111111101100 1
b10000000000100011111111111101100 L
1'
#505
0'
#510
b111111111111111100 2
b10 $
b10 5
b10 @
b101 T
b0 S
b10 P
b10 X
1O
1'
#511
b1010 [
#515
0'
#520
b1 T
0O
b1 S
1'
#525
0'
#530
b1011 9
b11 G
b11 Z
b11 E
b11 U
b10 T
b10000000000000100000000000101100 "
b10000000000000100000000000101100 ;
b10000000000000100000000000101100 H
b10000000000000100000000000101100 N
b11000100001000000100001 M
1'
#535
0'
#540
b1100 <
b10101111110000100000000000001000 !
b10101111110000100000000000001000 ?
b10101111110000100000000000001000 B
b11 T
b1000000100001 Q
b11 I
1'
#545
0'
#550
b101 C
b101 W
b100 T
b101 J
1'
#555
0'
#560
b101 T
1O
1'
#561
b1011 [
#565
0'
#570
b101 F
b101 Y
b1 T
0O
1'
#575
0'
#580
b1100 9
b10000000000100011111111111101000 G
b10000000000100011111111111101000 Z
b11110 E
b11110 U
b10 T
b10000000000000100000000000110000 "
b10000000000000100000000000110000 ;
b10000000000000100000000000110000 H
b10000000000000100000000000110000 N
b10101111110000100000000000001000 M
1'
#585
0'
#590
b1101 <
b10001111110000100000000000001000 !
b10001111110000100000000000001000 ?
b10001111110000100000000000001000 B
b11 T
b1000 Q
b101 %
b101 /
b101 A
b101 K
b10000000000100011111111111101000 I
1'
#595
0'
#600
b111111111111111100 .
0#
b100 T
b10000000000100011111111111110000 &
b10000000000100011111111111110000 1
b10000000000100011111111111110000 L
1R
1'
#605
0'
#610
1#
04
b111111111111111101 2
b101 T
0R
b0 P
b0 X
1'
#611
b1100 [
#615
0'
#620
14
b101 $
b101 5
b101 @
b1 T
1'
#625
0'
#630
b1101 9
b10 T
b10000000000000100000000000110100 "
b10000000000000100000000000110100 ;
b10000000000000100000000000110100 H
b10000000000000100000000000110100 N
b10001111110000100000000000001000 M
1'
#635
0'
#640
b1110 <
b11110000001110100000100001 !
b11110000001110100000100001 ?
b11110000001110100000100001 B
b11 T
1'
#645
0'
#650
b100 T
1'
#655
0'
#660
b101 T
b0 S
b10 P
b10 X
1O
1'
#661
b1101 [
#665
0'
#670
b1 T
0O
b1 S
1'
#675
0'
#680
b1110 9
b0 F
b0 Y
b0 D
b0 V
b10 T
b10000000000000100000000000111000 "
b10000000000000100000000000111000 ;
b10000000000000100000000000111000 H
b10000000000000100000000000111000 N
b11110000001110100000100001 M
1'
#685
0'
#690
b1111 <
b10001111101111100000000000010100 !
b10001111101111100000000000010100 ?
b10001111101111100000000000010100 B
b11 T
b11111111111111111110100000100001 Q
b0 %
b0 /
b0 A
b0 K
1'
#695
0'
#700
b10000000000100011111111111101000 C
b10000000000100011111111111101000 W
b100 T
b10000000000100011111111111101000 J
1'
#705
0'
#710
b101 T
b11101 P
b11101 X
1O
1'
#711
b1110 [
#715
0'
#720
b1 T
0O
1'
#725
0'
#730
b1111 9
b10000000000100011111111111101000 F
b10000000000100011111111111101000 Y
b11101 E
b11101 U
b11110 D
b11110 V
b10 T
b10000000000000100000000000111100 "
b10000000000000100000000000111100 ;
b10000000000000100000000000111100 H
b10000000000000100000000000111100 N
b10001111101111100000000000010100 M
1'
#735
0'
#740
b10000 <
b100111101111010000000000011000 !
b100111101111010000000000011000 ?
b100111101111010000000000011000 B
b11 T
b10100 Q
b10000000000100011111111111101000 %
b10000000000100011111111111101000 /
b10000000000100011111111111101000 A
b10000000000100011111111111101000 K
1'
#745
0'
#750
b111111111111111111 .
b100 T
b10000000000100011111111111111100 &
b10000000000100011111111111111100 1
b10000000000100011111111111111100 L
1'
#755
0'
#760
bx C
bx W
b1000000000000000000 2
bx $
bx 5
bx @
b101 T
b0 S
b11110 P
b11110 X
1O
1'
#761
b1111 [
#765
0'
#770
bx F
bx Y
b10000000000100011111111111101000 C
b10000000000100011111111111101000 W
b1 T
0O
b1 S
1'
#775
0'
#780
b10000 9
b10000000000100011111111111101000 F
b10000000000100011111111111101000 Y
b11101 D
b11101 V
b10 T
b10000000000000100000000001000000 "
b10000000000000100000000001000000 ;
b10000000000000100000000001000000 H
b10000000000000100000000001000000 N
b100111101111010000000000011000 M
1'
#785
0'
#790
b10001 <
b11111000000000000000001000 !
b11111000000000000000001000 ?
b11111000000000000000001000 B
b11 T
b11000 Q
1'
#795
0'
#800
b10000000000100100000000000000000 C
b10000000000100100000000000000000 W
b100 T
b10000000000100100000000000000000 J
1'
#805
0'
#810
b101 T
b11101 P
b11101 X
1O
1'
#811
b10000 [
#815
0'
#820
b10000000000100100000000000000000 G
b10000000000100100000000000000000 Z
b10000000000100100000000000000000 F
b10000000000100100000000000000000 Y
b1 T
0O
1'
#825
0'
#830
b10001 9
b0 G
b0 Z
b0 F
b0 Y
b11111 E
b11111 U
b0 D
b0 V
b10 T
b10000000000000100000000001000100 "
b10000000000000100000000001000100 ;
b10000000000000100000000001000100 H
b10000000000000100000000001000100 N
b11111000000000000000001000 M
1'
#835
0'
#840
b10010 <
b0 !
b0 ?
b0 B
b11 T
b1000 Q
b0 I
1'
#845
0'
#850
b100 T
1'
#855
0'
#860
b11111111111111000000000000000 9
b101 T
b0 "
b0 ;
b0 H
b0 N
b0 P
b0 X
1'
#861
b10001 [
#865
0'
#870
b11111111111111000000000000001 <
bx !
bx ?
bx B
b1 T
1'
